<?xml version="1.0" encoding="utf-8"?>
<!-- Generator: Adobe Illustrator 19.0.0, SVG Export Plug-In . SVG Version: 6.00 Build 0)  -->
<svg version="1.1" id="Layer_1" xmlns:sketch="http://www.bohemiancoding.com/sketch/ns"
	 xmlns="http://www.w3.org/2000/svg" xmlns:xlink="http://www.w3.org/1999/xlink" x="0px" y="0px" viewBox="3 -11 7 25"
	 style="enable-background:new 3 -11 7 25;" xml:space="preserve">
<style type="text/css">
	.st0{fill:#282F35;}
	.st1{fill:#00853F;}
</style>
<title>Shape Copy 2</title>
<desc>Created with Sketch.</desc>
<g id="Page-1" sketch:type="MSPage">
	<g id="Nav-1-Copy-13" transform="translate(-466.000000, -283.000000)" sketch:type="MSArtboardGroup">
		<g id="Group" transform="translate(255.000000, 165.000000)" sketch:type="MSLayerGroup">
			<path id="Shape-Copy-2" sketch:type="MSShapeGroup" class="st0" d="M214.8,108.2l4.4,4.4l0-0.9l-4.4,4.4c-0.3,0.3-0.3,0.7,0,0.9
				c0.3,0.3,0.7,0.3,0.9,0l4.4-4.4l0.5-0.5l-0.5-0.5l-4.4-4.4c-0.3-0.3-0.7-0.3-0.9,0C214.6,107.6,214.6,108,214.8,108.2
				L214.8,108.2z"/>
		</g>
	</g>
</g>
<title>Shape Copy 2</title>
<desc>Created with Sketch.</desc>
<g id="Page-1_1_" sketch:type="MSPage">
	<g id="Nav-1-Copy-13_1_" transform="translate(-466.000000, -283.000000)" sketch:type="MSArtboardGroup">
		<g id="Group_1_" transform="translate(255.000000, 165.000000)" sketch:type="MSLayerGroup">
			<path id="Shape-Copy-2_1_" sketch:type="MSShapeGroup" class="st1" d="M214.8,122.7l4.4,4.4l0-0.9l-4.4,4.4
				c-0.3,0.3-0.3,0.7,0,0.9s0.7,0.3,0.9,0l4.4-4.4l0.5-0.5l-0.5-0.5l-4.4-4.4c-0.3-0.3-0.7-0.3-0.9,0
				C214.6,122,214.6,122.4,214.8,122.7L214.8,122.7z"/>
		</g>
	</g>
</g>
</svg>
